<?xml version="1.0" encoding="UTF-8" standalone="no"?>
<!DOCTYPE svg PUBLIC "-//W3C//DTD SVG 1.1//EN" "http://www.w3.org/Graphics/SVG/1.1/DTD/svg11.dtd">
<!-- Generated by Microsoft Visio, SVG Export ER.svg Page-1 -->
<svg xmlns="http://www.w3.org/2000/svg" xmlns:xlink="http://www.w3.org/1999/xlink" xmlns:ev="http://www.w3.org/2001/xml-events"
		xmlns:v="http://schemas.microsoft.com/visio/2003/SVGExtensions/" width="10.8268in" height="7.20472in"
		viewBox="0 0 779.528 518.74" xml:space="preserve" color-interpolation-filters="sRGB" class="st8">
	<v:documentProperties v:langID="1033" v:metric="true" v:viewMarkup="false">
		<v:userDefs>
			<v:ud v:nameU="msvNoAutoConnect" v:prompt="" v:val="VT0(0):26"/>
		</v:userDefs>
	</v:documentProperties>

	<style type="text/css">
	<![CDATA[
		.st1 {fill:#5b9bd5;stroke:#ffffff;stroke-linecap:round;stroke-linejoin:round;stroke-width:0.5}
		.st2 {fill:#ffffff;font-family:Calibri;font-size:0.833336em}
		.st3 {stroke:#5b9bd5;stroke-linecap:round;stroke-linejoin:round;stroke-width:0.5}
		.st4 {font-size:1em}
		.st5 {stroke:#5592c9;stroke-linecap:round;stroke-linejoin:round;stroke-width:0.5}
		.st6 {fill:#ffffff;stroke:none;stroke-linecap:butt;stroke-width:7.2}
		.st7 {fill:#41719d;font-family:Calibri;font-size:0.666664em}
		.st8 {fill:none;fill-rule:evenodd;font-size:12px;overflow:visible;stroke-linecap:square;stroke-miterlimit:3}
	]]>
	</style>

	<g v:mID="0" v:index="1" v:groupContext="foregroundPage">
		<v:userDefs>
			<v:ud v:nameU="msvThemeOrder" v:val="VT0(0):26"/>
		</v:userDefs>
		<title>Page-1</title>
		<v:pageProperties v:drawingScale="0.0393701" v:pageScale="0.0393701" v:drawingUnits="24" v:shadowOffsetX="8.50394"
				v:shadowOffsetY="-8.50394"/>
		<v:layer v:name="Connector" v:index="0"/>
		<g id="shape1-1" v:mID="1" v:groupContext="shape" transform="translate(311.811,-453.096)">
			<title>Entity</title>
			<desc>USER</desc>
			<v:userDefs>
				<v:ud v:nameU="msvShapeCategories" v:prompt="" v:val="VT4(Database;DbEntity)"/>
				<v:ud v:nameU="EntityName" v:prompt="" v:val="VT4()"/>
				<v:ud v:nameU="EntityNameSpace" v:prompt="" v:val="VT4()"/>
				<v:ud v:nameU="Weak" v:prompt="" v:val="VT0(0):26"/>
				<v:ud v:nameU="Composite" v:prompt="" v:val="VT0(0):26"/>
				<v:ud v:nameU="visVersion" v:prompt="" v:val="VT0(15):26"/>
				<v:ud v:nameU="EntityName" v:prompt="" v:val="VT4(USER)"/>
				<v:ud v:nameU="EntityNameSpace" v:prompt="" v:val="VT4(USER)"/>
			</v:userDefs>
			<v:textBlock v:margins="rect(4,4,4,4)" v:tabSpace="42.5197"/>
			<v:textRect cx="56.6929" cy="508.11" width="113.39" height="21.2598"/>
			<path d="M0 518.74 L113.39 518.74 L113.39 497.48 L0 497.48 L0 518.74 Z" class="st1"/>
			<text x="46.03" y="511.11" class="st2" v:langID="2057"><v:paragraph v:horizAlign="1"/><v:tabList/>USER</text>		</g>
		<g id="shape2-4" v:mID="2" v:groupContext="shape" transform="translate(311.811,-318.189)">
			<title>Entity.2</title>
			<desc>GROUP</desc>
			<v:userDefs>
				<v:ud v:nameU="msvShapeCategories" v:prompt="" v:val="VT4(Database;DbEntity)"/>
				<v:ud v:nameU="EntityName" v:prompt="" v:val="VT4()"/>
				<v:ud v:nameU="EntityNameSpace" v:prompt="" v:val="VT4()"/>
				<v:ud v:nameU="Weak" v:prompt="" v:val="VT0(0):26"/>
				<v:ud v:nameU="Composite" v:prompt="" v:val="VT0(0):26"/>
				<v:ud v:nameU="visVersion" v:prompt="" v:val="VT0(15):26"/>
				<v:ud v:nameU="EntityName" v:prompt="" v:val="VT4(GROUP)"/>
				<v:ud v:nameU="EntityNameSpace" v:prompt="" v:val="VT4(GROUP)"/>
			</v:userDefs>
			<v:textBlock v:margins="rect(4,4,4,4)" v:tabSpace="42.5197"/>
			<v:textRect cx="56.6929" cy="508.11" width="113.39" height="21.2598"/>
			<path d="M0 518.74 L113.39 518.74 L113.39 497.48 L0 497.48 L0 518.74 Z" class="st1"/>
			<text x="41.72" y="511.11" class="st2" v:langID="2057"><v:paragraph v:horizAlign="1"/><v:tabList/>GROUP</text>		</g>
		<g id="shape3-7" v:mID="3" v:groupContext="shape" transform="translate(614.671,-183.674)">
			<title>Entity.3</title>
			<desc>REPOSITORY</desc>
			<v:userDefs>
				<v:ud v:nameU="msvShapeCategories" v:prompt="" v:val="VT4(Database;DbEntity)"/>
				<v:ud v:nameU="EntityName" v:prompt="" v:val="VT4()"/>
				<v:ud v:nameU="EntityNameSpace" v:prompt="" v:val="VT4()"/>
				<v:ud v:nameU="Weak" v:prompt="" v:val="VT0(0):26"/>
				<v:ud v:nameU="Composite" v:prompt="" v:val="VT0(0):26"/>
				<v:ud v:nameU="visVersion" v:prompt="" v:val="VT0(15):26"/>
				<v:ud v:nameU="EntityName" v:prompt="" v:val="VT4(REPOSITORY)"/>
				<v:ud v:nameU="EntityNameSpace" v:prompt="" v:val="VT4(REPOSITORY)"/>
			</v:userDefs>
			<v:textBlock v:margins="rect(4,4,4,4)" v:tabSpace="42.5197"/>
			<v:textRect cx="56.6929" cy="508.11" width="113.39" height="21.2598"/>
			<path d="M0 518.74 L113.39 518.74 L113.39 497.48 L0 497.48 L0 518.74 Z" class="st1"/>
			<text x="31.19" y="511.11" class="st2" v:langID="2057"><v:paragraph v:horizAlign="1"/><v:tabList/>REPOSITORY</text>		</g>
		<g id="shape5-10" v:mID="5" v:groupContext="shape" transform="translate(42.5197,-178.583)">
			<title>Entity.5</title>
			<desc>MACHINE</desc>
			<v:userDefs>
				<v:ud v:nameU="msvShapeCategories" v:prompt="" v:val="VT4(Database;DbEntity)"/>
				<v:ud v:nameU="EntityName" v:prompt="" v:val="VT4()"/>
				<v:ud v:nameU="EntityNameSpace" v:prompt="" v:val="VT4()"/>
				<v:ud v:nameU="Weak" v:prompt="" v:val="VT0(0):26"/>
				<v:ud v:nameU="Composite" v:prompt="" v:val="VT0(0):26"/>
				<v:ud v:nameU="visVersion" v:prompt="" v:val="VT0(15):26"/>
				<v:ud v:nameU="EntityName" v:prompt="" v:val="VT4(MACHINE)"/>
				<v:ud v:nameU="EntityNameSpace" v:prompt="" v:val="VT4(MACHINE)"/>
			</v:userDefs>
			<v:textBlock v:margins="rect(4,4,4,4)" v:tabSpace="42.5197"/>
			<v:textRect cx="56.6929" cy="508.11" width="113.39" height="21.2598"/>
			<path d="M0 518.74 L113.39 518.74 L113.39 497.48 L0 497.48 L0 518.74 Z" class="st1"/>
			<text x="36.81" y="511.11" class="st2" v:langID="2057"><v:paragraph v:horizAlign="1"/><v:tabList/>MACHINE</text>		</g>
		<g id="shape6-13" v:mID="6" v:groupContext="shape" transform="translate(418.11,-183.674)">
			<title>Entity.6</title>
			<desc>OPERATION</desc>
			<v:userDefs>
				<v:ud v:nameU="msvShapeCategories" v:prompt="" v:val="VT4(Database;DbEntity)"/>
				<v:ud v:nameU="EntityName" v:prompt="" v:val="VT4()"/>
				<v:ud v:nameU="EntityNameSpace" v:prompt="" v:val="VT4()"/>
				<v:ud v:nameU="Weak" v:prompt="" v:val="VT0(0):26"/>
				<v:ud v:nameU="Composite" v:prompt="" v:val="VT0(0):26"/>
				<v:ud v:nameU="visVersion" v:prompt="" v:val="VT0(15):26"/>
				<v:ud v:nameU="EntityName" v:prompt="" v:val="VT4(OPERATION)"/>
				<v:ud v:nameU="EntityNameSpace" v:prompt="" v:val="VT4(OPERATION)"/>
			</v:userDefs>
			<v:textBlock v:margins="rect(4,4,4,4)" v:tabSpace="42.5197"/>
			<v:textRect cx="56.6929" cy="508.11" width="113.39" height="21.2598"/>
			<path d="M0 518.74 L113.39 518.74 L113.39 497.48 L0 497.48 L0 518.74 Z" class="st1"/>
			<text x="32.52" y="511.11" class="st2" v:langID="2057"><v:paragraph v:horizAlign="1"/><v:tabList/>OPERATION</text>		</g>
		<g id="group7-16" transform="translate(432.283,-83.3274)" v:mID="7" v:groupContext="group">
			<v:userDefs>
				<v:ud v:nameU="AttributeName" v:prompt="" v:val="VT4()"/>
				<v:ud v:nameU="PrimaryKey" v:prompt="" v:val="VT0(0):26"/>
				<v:ud v:nameU="Multivalue" v:prompt="" v:val="VT0(0):26"/>
				<v:ud v:nameU="Derived" v:prompt="" v:val="VT0(0):26"/>
				<v:ud v:nameU="Required" v:prompt="" v:val="VT0(0):5"/>
				<v:ud v:nameU="msvStructureType" v:prompt="" v:val="VT4(Callout)"/>
				<v:ud v:nameU="msvSDTargetIntersection" v:prompt=""/>
				<v:ud v:nameU="msvSDCalloutNoHighlight" v:prompt="" v:val="VT0(0):5"/>
				<v:ud v:nameU="msvShapeCategories" v:prompt="" v:val="VT4(Database;DbAttribute)"/>
				<v:ud v:nameU="Side" v:prompt="" v:val="VT0(4):26"/>
				<v:ud v:nameU="LeaderEnd" v:prompt="" v:val="VT7(PNT(7.5MM,-14.4MM)):40"/>
				<v:ud v:nameU="WHBoxIntersection" v:prompt="" v:val="VT7(PNT(12.115384615385MM,0MM)):40"/>
				<v:ud v:nameU="visVersion" v:prompt="" v:val="VT0(15):26"/>
				<v:ud v:nameU="AttributeName" v:prompt="" v:val="VT4(ID)"/>
				<v:ud v:nameU="msvSDTargetIntersection" v:prompt="" v:val="VT7(PNT(0.59055118110236,1.3937007874016)):40"/>
				<v:ud v:nameU="Side" v:prompt="" v:val="VT0(2):26"/>
				<v:ud v:nameU="LeaderEnd" v:prompt="" v:val="VT7(PNT(0.59055118110236,1.3937007874016)):40"/>
				<v:ud v:nameU="WHBoxIntersection" v:prompt="" v:val="VT7(PNT(15MM,0.39370078740158)):40"/>
			</v:userDefs>
			<title>Attribute</title>
			<desc>ID</desc>
			<g id="shape8-17" v:mID="8" v:groupContext="shape">
				<title>Sheet.8</title>
				<v:userDefs>
					<v:ud v:nameU="LeaderEnd" v:prompt="" v:val="VT7(PNT(7.5MM,-14.4MM)):40"/>
					<v:ud v:nameU="LeaderEnd" v:prompt="" v:val="VT7(PNT(0.59055118110236,1.3937007874016)):40"/>
				</v:userDefs>
				<path d="M42.52 504.57 L42.52 418.39" class="st3"/>
			</g>
			<g id="shape7-20" v:mID="7" v:groupContext="groupContent">
				<v:textBlock v:margins="rect(4,4,4,4)" v:tabSpace="42.5197"/>
				<v:textRect cx="42.5197" cy="504.567" width="85.04" height="28.3465"/>
				<path d="M85.04 504.57 A42.5197 14.1732 -180 1 0 0 504.57 A42.5197 14.1732 -180 1 0 85.04 504.57 Z" class="st1"/>
				<text x="38.18" y="507.57" class="st2" v:langID="2057"><v:paragraph v:horizAlign="1"/><v:tabList/>ID</text>			</g>
		</g>
		<g id="group9-23" transform="translate(488.976,-41.9416)" v:mID="9" v:groupContext="group">
			<v:userDefs>
				<v:ud v:nameU="AttributeName" v:prompt="" v:val="VT4()"/>
				<v:ud v:nameU="PrimaryKey" v:prompt="" v:val="VT0(0):26"/>
				<v:ud v:nameU="Multivalue" v:prompt="" v:val="VT0(0):26"/>
				<v:ud v:nameU="Derived" v:prompt="" v:val="VT0(0):26"/>
				<v:ud v:nameU="Required" v:prompt="" v:val="VT0(0):5"/>
				<v:ud v:nameU="msvStructureType" v:prompt="" v:val="VT4(Callout)"/>
				<v:ud v:nameU="msvSDTargetIntersection" v:prompt=""/>
				<v:ud v:nameU="msvSDCalloutNoHighlight" v:prompt="" v:val="VT0(0):5"/>
				<v:ud v:nameU="msvShapeCategories" v:prompt="" v:val="VT4(Database;DbAttribute)"/>
				<v:ud v:nameU="Side" v:prompt="" v:val="VT0(4):26"/>
				<v:ud v:nameU="LeaderEnd" v:prompt="" v:val="VT7(PNT(7.5MM,-14.4MM)):40"/>
				<v:ud v:nameU="WHBoxIntersection" v:prompt="" v:val="VT7(PNT(12.115384615385MM,0MM)):40"/>
				<v:ud v:nameU="visVersion" v:prompt="" v:val="VT0(15):26"/>
				<v:ud v:nameU="AttributeName" v:prompt="" v:val="VT4(OPERATION NAME)"/>
				<v:ud v:nameU="msvSDTargetIntersection" v:prompt="" v:val="VT7(PNT(-0.13628104179285,1.9685039370079)):40"/>
				<v:ud v:nameU="Side" v:prompt="" v:val="VT0(2):26"/>
				<v:ud v:nameU="LeaderEnd" v:prompt="" v:val="VT7(PNT(-0.13628104179285,1.9685039370079)):40"/>
				<v:ud v:nameU="WHBoxIntersection" v:prompt="" v:val="VT7(PNT(0MM,0.39370078740158)):40"/>
			</v:userDefs>
			<title>Attribute.9</title>
			<desc>OPERATION NAME</desc>
			<g id="shape10-24" v:mID="10" v:groupContext="shape">
				<title>Sheet.10</title>
				<v:userDefs>
					<v:ud v:nameU="LeaderEnd" v:prompt="" v:val="VT7(PNT(7.5MM,-14.4MM)):40"/>
					<v:ud v:nameU="LeaderEnd" v:prompt="" v:val="VT7(PNT(-0.13628104179285,1.9685039370079)):40"/>
				</v:userDefs>
				<path d="M42.52 504.57 L-9.81 377.01" class="st3"/>
			</g>
			<g id="shape9-27" v:mID="9" v:groupContext="groupContent">
				<v:textBlock v:margins="rect(4,4,4,4)" v:tabSpace="42.5197"/>
				<v:textRect cx="42.5197" cy="504.567" width="85.04" height="28.3465"/>
				<path d="M85.04 504.57 A42.5197 14.1732 -180 1 0 0 504.57 A42.5197 14.1732 -180 1 0 85.04 504.57 Z" class="st1"/>
				<text x="4.38" y="507.57" class="st2" v:langID="2057"><v:paragraph v:horizAlign="1"/><v:tabList/>OPERATION NAME</text>			</g>
		</g>
		<g id="group20-30" transform="translate(14.1732,-79.3701)" v:mID="20" v:groupContext="group">
			<v:userDefs>
				<v:ud v:nameU="AttributeName" v:prompt="" v:val="VT4()"/>
				<v:ud v:nameU="PrimaryKey" v:prompt="" v:val="VT0(0):26"/>
				<v:ud v:nameU="Multivalue" v:prompt="" v:val="VT0(0):26"/>
				<v:ud v:nameU="Derived" v:prompt="" v:val="VT0(0):26"/>
				<v:ud v:nameU="Required" v:prompt="" v:val="VT0(0):5"/>
				<v:ud v:nameU="msvStructureType" v:prompt="" v:val="VT4(Callout)"/>
				<v:ud v:nameU="msvSDTargetIntersection" v:prompt=""/>
				<v:ud v:nameU="msvSDCalloutNoHighlight" v:prompt="" v:val="VT0(0):5"/>
				<v:ud v:nameU="msvShapeCategories" v:prompt="" v:val="VT4(Database;DbAttribute)"/>
				<v:ud v:nameU="Side" v:prompt="" v:val="VT0(4):26"/>
				<v:ud v:nameU="LeaderEnd" v:prompt="" v:val="VT7(PNT(7.5MM,-14.4MM)):40"/>
				<v:ud v:nameU="WHBoxIntersection" v:prompt="" v:val="VT7(PNT(12.115384615385MM,0MM)):40"/>
				<v:ud v:nameU="visVersion" v:prompt="" v:val="VT0(15):26"/>
				<v:ud v:nameU="AttributeName" v:prompt="" v:val="VT4(ID)"/>
				<v:ud v:nameU="msvSDTargetIntersection" v:prompt="" v:val="VT7(PNT(1.1154855643045,1.3779527559055)):40"/>
				<v:ud v:nameU="Side" v:prompt="" v:val="VT0(2):26"/>
				<v:ud v:nameU="LeaderEnd" v:prompt="" v:val="VT7(PNT(1.1154855643045,1.3779527559055)):40"/>
				<v:ud v:nameU="WHBoxIntersection" v:prompt="" v:val="VT7(PNT(17.222222222222MM,0.39370078740158)):40"/>
			</v:userDefs>
			<title>Attribute.20</title>
			<desc>ID</desc>
			<g id="shape21-31" v:mID="21" v:groupContext="shape">
				<title>Sheet.21</title>
				<v:userDefs>
					<v:ud v:nameU="LeaderEnd" v:prompt="" v:val="VT7(PNT(7.5MM,-14.4MM)):40"/>
					<v:ud v:nameU="LeaderEnd" v:prompt="" v:val="VT7(PNT(1.1154855643045,1.3779527559055)):40"/>
				</v:userDefs>
				<path d="M42.52 504.57 L80.31 419.53" class="st3"/>
			</g>
			<g id="shape20-34" v:mID="20" v:groupContext="groupContent">
				<v:textBlock v:margins="rect(4,4,4,4)" v:tabSpace="42.5197"/>
				<v:textRect cx="42.5197" cy="504.567" width="85.04" height="28.3465"/>
				<path d="M85.04 504.57 A42.5197 14.1732 -180 1 0 0 504.57 A42.5197 14.1732 -180 1 0 85.04 504.57 Z" class="st1"/>
				<text x="38.18" y="507.57" class="st2" v:langID="2057"><v:paragraph v:horizAlign="1"/><v:tabList/>ID</text>			</g>
		</g>
		<g id="group22-37" transform="translate(56.6929,-36.8504)" v:mID="22" v:groupContext="group">
			<v:userDefs>
				<v:ud v:nameU="AttributeName" v:prompt="" v:val="VT4()"/>
				<v:ud v:nameU="PrimaryKey" v:prompt="" v:val="VT0(0):26"/>
				<v:ud v:nameU="Multivalue" v:prompt="" v:val="VT0(0):26"/>
				<v:ud v:nameU="Derived" v:prompt="" v:val="VT0(0):26"/>
				<v:ud v:nameU="Required" v:prompt="" v:val="VT0(0):5"/>
				<v:ud v:nameU="msvStructureType" v:prompt="" v:val="VT4(Callout)"/>
				<v:ud v:nameU="msvSDTargetIntersection" v:prompt=""/>
				<v:ud v:nameU="msvSDCalloutNoHighlight" v:prompt="" v:val="VT0(0):5"/>
				<v:ud v:nameU="msvShapeCategories" v:prompt="" v:val="VT4(Database;DbAttribute)"/>
				<v:ud v:nameU="Side" v:prompt="" v:val="VT0(4):26"/>
				<v:ud v:nameU="LeaderEnd" v:prompt="" v:val="VT7(PNT(7.5MM,-14.4MM)):40"/>
				<v:ud v:nameU="WHBoxIntersection" v:prompt="" v:val="VT7(PNT(12.115384615385MM,0MM)):40"/>
				<v:ud v:nameU="visVersion" v:prompt="" v:val="VT0(15):26"/>
				<v:ud v:nameU="AttributeName" v:prompt="" v:val="VT4(MACHINE NAME)"/>
				<v:ud v:nameU="msvSDTargetIntersection" v:prompt="" v:val="VT7(PNT(0.59055118110237,1.9685039370079)):40"/>
				<v:ud v:nameU="Side" v:prompt="" v:val="VT0(2):26"/>
				<v:ud v:nameU="LeaderEnd" v:prompt="" v:val="VT7(PNT(0.59055118110237,1.9685039370079)):40"/>
				<v:ud v:nameU="WHBoxIntersection" v:prompt="" v:val="VT7(PNT(15MM,0.39370078740158)):40"/>
			</v:userDefs>
			<title>Attribute.22</title>
			<desc>MACHINE NAME</desc>
			<g id="shape23-38" v:mID="23" v:groupContext="shape">
				<title>Sheet.23</title>
				<v:userDefs>
					<v:ud v:nameU="LeaderEnd" v:prompt="" v:val="VT7(PNT(7.5MM,-14.4MM)):40"/>
					<v:ud v:nameU="LeaderEnd" v:prompt="" v:val="VT7(PNT(0.59055118110237,1.9685039370079)):40"/>
				</v:userDefs>
				<path d="M42.52 504.57 L42.52 377.01" class="st3"/>
			</g>
			<g id="shape22-41" v:mID="22" v:groupContext="groupContent">
				<v:textBlock v:margins="rect(4,4,4,4)" v:tabSpace="42.5197"/>
				<v:textRect cx="42.5197" cy="504.567" width="85.04" height="28.3465"/>
				<path d="M85.04 504.57 A42.5197 14.1732 -180 1 0 0 504.57 A42.5197 14.1732 -180 1 0 85.04 504.57 Z" class="st1"/>
				<text x="8.67" y="507.57" class="st2" v:langID="2057"><v:paragraph v:horizAlign="1"/><v:tabList/>MACHINE NAME</text>			</g>
		</g>
		<g id="group24-44" transform="translate(99.2126,-79.3701)" v:mID="24" v:groupContext="group">
			<v:userDefs>
				<v:ud v:nameU="AttributeName" v:prompt="" v:val="VT4()"/>
				<v:ud v:nameU="PrimaryKey" v:prompt="" v:val="VT0(0):26"/>
				<v:ud v:nameU="Multivalue" v:prompt="" v:val="VT0(0):26"/>
				<v:ud v:nameU="Derived" v:prompt="" v:val="VT0(0):26"/>
				<v:ud v:nameU="Required" v:prompt="" v:val="VT0(0):5"/>
				<v:ud v:nameU="msvStructureType" v:prompt="" v:val="VT4(Callout)"/>
				<v:ud v:nameU="msvSDTargetIntersection" v:prompt=""/>
				<v:ud v:nameU="msvSDCalloutNoHighlight" v:prompt="" v:val="VT0(0):5"/>
				<v:ud v:nameU="msvShapeCategories" v:prompt="" v:val="VT4(Database;DbAttribute)"/>
				<v:ud v:nameU="Side" v:prompt="" v:val="VT0(4):26"/>
				<v:ud v:nameU="LeaderEnd" v:prompt="" v:val="VT7(PNT(7.5MM,-14.4MM)):40"/>
				<v:ud v:nameU="WHBoxIntersection" v:prompt="" v:val="VT7(PNT(12.115384615385MM,0MM)):40"/>
				<v:ud v:nameU="visVersion" v:prompt="" v:val="VT0(15):26"/>
				<v:ud v:nameU="AttributeName" v:prompt="" v:val="VT4(MACHINE ADDRESS)"/>
				<v:ud v:nameU="msvSDTargetIntersection" v:prompt="" v:val="VT7(PNT(0.065616797900262,1.3779527559055)):40"/>
				<v:ud v:nameU="Side" v:prompt="" v:val="VT0(2):26"/>
				<v:ud v:nameU="LeaderEnd" v:prompt="" v:val="VT7(PNT(0.065616797900262,1.3779527559055)):40"/>
				<v:ud v:nameU="WHBoxIntersection" v:prompt="" v:val="VT7(PNT(12.777777777778MM,0.39370078740158)):40"/>
			</v:userDefs>
			<title>Attribute.24</title>
			<desc>MACHINE ADDRESS</desc>
			<g id="shape25-45" v:mID="25" v:groupContext="shape">
				<title>Sheet.25</title>
				<v:userDefs>
					<v:ud v:nameU="LeaderEnd" v:prompt="" v:val="VT7(PNT(7.5MM,-14.4MM)):40"/>
					<v:ud v:nameU="LeaderEnd" v:prompt="" v:val="VT7(PNT(0.065616797900262,1.3779527559055)):40"/>
				</v:userDefs>
				<path d="M42.52 504.57 L4.72 419.53" class="st3"/>
			</g>
			<g id="shape24-48" v:mID="24" v:groupContext="groupContent">
				<v:textBlock v:margins="rect(4,4,4,4)" v:tabSpace="42.5197"/>
				<v:textRect cx="42.5197" cy="504.567" width="85.04" height="28.3465"/>
				<path d="M85.04 504.57 A42.5197 14.1732 -180 1 0 0 504.57 A42.5197 14.1732 -180 1 0 85.04 504.57 Z" class="st1"/>
				<text x="22.64" y="501.57" class="st2" v:langID="2057"><v:paragraph v:horizAlign="1"/><v:tabList/>MACHINE <tspan
							x="23.72" dy="1.2em" class="st4">ADDRESS</tspan></text>			</g>
		</g>
		<g id="group26-52" transform="translate(586.324,-84.4613)" v:mID="26" v:groupContext="group">
			<v:userDefs>
				<v:ud v:nameU="AttributeName" v:prompt="" v:val="VT4()"/>
				<v:ud v:nameU="PrimaryKey" v:prompt="" v:val="VT0(0):26"/>
				<v:ud v:nameU="Multivalue" v:prompt="" v:val="VT0(0):26"/>
				<v:ud v:nameU="Derived" v:prompt="" v:val="VT0(0):26"/>
				<v:ud v:nameU="Required" v:prompt="" v:val="VT0(0):5"/>
				<v:ud v:nameU="msvStructureType" v:prompt="" v:val="VT4(Callout)"/>
				<v:ud v:nameU="msvSDTargetIntersection" v:prompt=""/>
				<v:ud v:nameU="msvSDCalloutNoHighlight" v:prompt="" v:val="VT0(0):5"/>
				<v:ud v:nameU="msvShapeCategories" v:prompt="" v:val="VT4(Database;DbAttribute)"/>
				<v:ud v:nameU="Side" v:prompt="" v:val="VT0(4):26"/>
				<v:ud v:nameU="LeaderEnd" v:prompt="" v:val="VT7(PNT(7.5MM,-14.4MM)):40"/>
				<v:ud v:nameU="WHBoxIntersection" v:prompt="" v:val="VT7(PNT(12.115384615385MM,0MM)):40"/>
				<v:ud v:nameU="visVersion" v:prompt="" v:val="VT0(15):26"/>
				<v:ud v:nameU="AttributeName" v:prompt="" v:val="VT4(ID)"/>
				<v:ud v:nameU="msvSDTargetIntersection" v:prompt="" v:val="VT7(PNT(1.1154855643045,1.3779527559055)):40"/>
				<v:ud v:nameU="Side" v:prompt="" v:val="VT0(2):26"/>
				<v:ud v:nameU="LeaderEnd" v:prompt="" v:val="VT7(PNT(1.1154855643045,1.3779527559055)):40"/>
				<v:ud v:nameU="WHBoxIntersection" v:prompt="" v:val="VT7(PNT(17.222222222222MM,0.39370078740158)):40"/>
			</v:userDefs>
			<title>Attribute.26</title>
			<desc>ID</desc>
			<g id="shape27-53" v:mID="27" v:groupContext="shape">
				<title>Sheet.27</title>
				<v:userDefs>
					<v:ud v:nameU="LeaderEnd" v:prompt="" v:val="VT7(PNT(7.5MM,-14.4MM)):40"/>
					<v:ud v:nameU="LeaderEnd" v:prompt="" v:val="VT7(PNT(1.1154855643045,1.3779527559055)):40"/>
				</v:userDefs>
				<path d="M42.52 504.57 L80.31 419.53" class="st3"/>
			</g>
			<g id="shape26-56" v:mID="26" v:groupContext="groupContent">
				<v:textBlock v:margins="rect(4,4,4,4)" v:tabSpace="42.5197"/>
				<v:textRect cx="42.5197" cy="504.567" width="85.04" height="28.3465"/>
				<path d="M85.04 504.57 A42.5197 14.1732 -180 1 0 0 504.57 A42.5197 14.1732 -180 1 0 85.04 504.57 Z" class="st1"/>
				<text x="38.18" y="507.57" class="st2" v:langID="2057"><v:paragraph v:horizAlign="1"/><v:tabList/>ID</text>			</g>
		</g>
		<g id="group28-59" transform="translate(628.844,-41.9416)" v:mID="28" v:groupContext="group">
			<v:userDefs>
				<v:ud v:nameU="AttributeName" v:prompt="" v:val="VT4()"/>
				<v:ud v:nameU="PrimaryKey" v:prompt="" v:val="VT0(0):26"/>
				<v:ud v:nameU="Multivalue" v:prompt="" v:val="VT0(0):26"/>
				<v:ud v:nameU="Derived" v:prompt="" v:val="VT0(0):26"/>
				<v:ud v:nameU="Required" v:prompt="" v:val="VT0(0):5"/>
				<v:ud v:nameU="msvStructureType" v:prompt="" v:val="VT4(Callout)"/>
				<v:ud v:nameU="msvSDTargetIntersection" v:prompt=""/>
				<v:ud v:nameU="msvSDCalloutNoHighlight" v:prompt="" v:val="VT0(0):5"/>
				<v:ud v:nameU="msvShapeCategories" v:prompt="" v:val="VT4(Database;DbAttribute)"/>
				<v:ud v:nameU="Side" v:prompt="" v:val="VT0(4):26"/>
				<v:ud v:nameU="LeaderEnd" v:prompt="" v:val="VT7(PNT(7.5MM,-14.4MM)):40"/>
				<v:ud v:nameU="WHBoxIntersection" v:prompt="" v:val="VT7(PNT(12.115384615385MM,0MM)):40"/>
				<v:ud v:nameU="visVersion" v:prompt="" v:val="VT0(15):26"/>
				<v:ud v:nameU="AttributeName" v:prompt="" v:val="VT4(REPO NAME)"/>
				<v:ud v:nameU="msvSDTargetIntersection" v:prompt="" v:val="VT7(PNT(0.59055118110236,1.9685039370079)):40"/>
				<v:ud v:nameU="Side" v:prompt="" v:val="VT0(2):26"/>
				<v:ud v:nameU="LeaderEnd" v:prompt="" v:val="VT7(PNT(0.59055118110236,1.9685039370079)):40"/>
				<v:ud v:nameU="WHBoxIntersection" v:prompt="" v:val="VT7(PNT(15MM,0.39370078740158)):40"/>
			</v:userDefs>
			<title>Attribute.28</title>
			<desc>REPO NAME</desc>
			<g id="shape29-60" v:mID="29" v:groupContext="shape">
				<title>Sheet.29</title>
				<v:userDefs>
					<v:ud v:nameU="LeaderEnd" v:prompt="" v:val="VT7(PNT(7.5MM,-14.4MM)):40"/>
					<v:ud v:nameU="LeaderEnd" v:prompt="" v:val="VT7(PNT(0.59055118110236,1.9685039370079)):40"/>
				</v:userDefs>
				<path d="M42.52 504.57 L42.52 377.01" class="st3"/>
			</g>
			<g id="shape28-63" v:mID="28" v:groupContext="groupContent">
				<v:textBlock v:margins="rect(4,4,4,4)" v:tabSpace="42.5197"/>
				<v:textRect cx="42.5197" cy="504.567" width="85.04" height="28.3465"/>
				<path d="M85.04 504.57 A42.5197 14.1732 -180 1 0 0 504.57 A42.5197 14.1732 -180 1 0 85.04 504.57 Z" class="st1"/>
				<text x="17.5" y="507.57" class="st2" v:langID="2057"><v:paragraph v:horizAlign="1"/><v:tabList/>REPO NAME</text>			</g>
		</g>
		<g id="group30-66" transform="translate(671.363,-83.3274)" v:mID="30" v:groupContext="group">
			<v:userDefs>
				<v:ud v:nameU="AttributeName" v:prompt="" v:val="VT4()"/>
				<v:ud v:nameU="PrimaryKey" v:prompt="" v:val="VT0(0):26"/>
				<v:ud v:nameU="Multivalue" v:prompt="" v:val="VT0(0):26"/>
				<v:ud v:nameU="Derived" v:prompt="" v:val="VT0(0):26"/>
				<v:ud v:nameU="Required" v:prompt="" v:val="VT0(0):5"/>
				<v:ud v:nameU="msvStructureType" v:prompt="" v:val="VT4(Callout)"/>
				<v:ud v:nameU="msvSDTargetIntersection" v:prompt=""/>
				<v:ud v:nameU="msvSDCalloutNoHighlight" v:prompt="" v:val="VT0(0):5"/>
				<v:ud v:nameU="msvShapeCategories" v:prompt="" v:val="VT4(Database;DbAttribute)"/>
				<v:ud v:nameU="Side" v:prompt="" v:val="VT0(4):26"/>
				<v:ud v:nameU="LeaderEnd" v:prompt="" v:val="VT7(PNT(7.5MM,-14.4MM)):40"/>
				<v:ud v:nameU="WHBoxIntersection" v:prompt="" v:val="VT7(PNT(12.115384615385MM,0MM)):40"/>
				<v:ud v:nameU="visVersion" v:prompt="" v:val="VT0(15):26"/>
				<v:ud v:nameU="AttributeName" v:prompt="" v:val="VT4(REPO ADDRESS)"/>
				<v:ud v:nameU="msvSDTargetIntersection" v:prompt="" v:val="VT7(PNT(0.06484822632895,1.3937007874016)):40"/>
				<v:ud v:nameU="Side" v:prompt="" v:val="VT0(2):26"/>
				<v:ud v:nameU="LeaderEnd" v:prompt="" v:val="VT7(PNT(0.06484822632895,1.3937007874016)):40"/>
				<v:ud v:nameU="WHBoxIntersection" v:prompt="" v:val="VT7(PNT(12.803806734993MM,0.39370078740158)):40"/>
			</v:userDefs>
			<title>Attribute.30</title>
			<desc>REPO ADDRESS</desc>
			<g id="shape31-67" v:mID="31" v:groupContext="shape">
				<title>Sheet.31</title>
				<v:userDefs>
					<v:ud v:nameU="LeaderEnd" v:prompt="" v:val="VT7(PNT(7.5MM,-14.4MM)):40"/>
					<v:ud v:nameU="LeaderEnd" v:prompt="" v:val="VT7(PNT(0.06484822632895,1.3937007874016)):40"/>
				</v:userDefs>
				<path d="M42.52 504.57 L4.67 418.39" class="st3"/>
			</g>
			<g id="shape30-70" v:mID="30" v:groupContext="groupContent">
				<v:textBlock v:margins="rect(4,4,4,4)" v:tabSpace="42.5197"/>
				<v:textRect cx="42.5197" cy="504.567" width="85.04" height="28.3465"/>
				<path d="M85.04 504.57 A42.5197 14.1732 -180 1 0 0 504.57 A42.5197 14.1732 -180 1 0 85.04 504.57 Z" class="st1"/>
				<text x="11.54" y="507.57" class="st2" v:langID="2057"><v:paragraph v:horizAlign="1"/><v:tabList/>REPO ADDRESS</text>			</g>
		</g>
		<g id="group32-73" transform="translate(517.323,-348.4)" v:mID="32" v:groupContext="group">
			<v:userDefs>
				<v:ud v:nameU="AttributeName" v:prompt="" v:val="VT4()"/>
				<v:ud v:nameU="PrimaryKey" v:prompt="" v:val="VT0(0):26"/>
				<v:ud v:nameU="Multivalue" v:prompt="" v:val="VT0(0):26"/>
				<v:ud v:nameU="Derived" v:prompt="" v:val="VT0(0):26"/>
				<v:ud v:nameU="Required" v:prompt="" v:val="VT0(0):5"/>
				<v:ud v:nameU="msvStructureType" v:prompt="" v:val="VT4(Callout)"/>
				<v:ud v:nameU="msvSDTargetIntersection" v:prompt=""/>
				<v:ud v:nameU="msvSDCalloutNoHighlight" v:prompt="" v:val="VT0(0):5"/>
				<v:ud v:nameU="msvShapeCategories" v:prompt="" v:val="VT4(Database;DbAttribute)"/>
				<v:ud v:nameU="Side" v:prompt="" v:val="VT0(4):26"/>
				<v:ud v:nameU="LeaderEnd" v:prompt="" v:val="VT7(PNT(7.5MM,-14.4MM)):40"/>
				<v:ud v:nameU="WHBoxIntersection" v:prompt="" v:val="VT7(PNT(12.115384615385MM,0MM)):40"/>
				<v:ud v:nameU="visVersion" v:prompt="" v:val="VT0(15):26"/>
				<v:ud v:nameU="AttributeName" v:prompt="" v:val="VT4(ID)"/>
				<v:ud v:nameU="msvSDTargetIntersection" v:prompt="" v:val="VT7(PNT(-1.279527594724,-0.13305629092356)):40"/>
				<v:ud v:nameU="Side" v:prompt="" v:val="VT0(3):26"/>
				<v:ud v:nameU="LeaderEnd" v:prompt="" v:val="VT7(PNT(-1.279527594724,-0.13305629092356)):40"/>
				<v:ud v:nameU="WHBoxIntersection" v:prompt="" v:val="VT7(PNT(0MM,0)):40"/>
			</v:userDefs>
			<title>Attribute.32</title>
			<desc>ID</desc>
			<g id="shape33-74" v:mID="33" v:groupContext="shape">
				<title>Sheet.33</title>
				<v:userDefs>
					<v:ud v:nameU="LeaderEnd" v:prompt="" v:val="VT7(PNT(7.5MM,-14.4MM)):40"/>
					<v:ud v:nameU="LeaderEnd" v:prompt="" v:val="VT7(PNT(-1.279527594724,-0.13305629092356)):40"/>
				</v:userDefs>
				<path d="M42.52 504.57 L-92.13 528.32" class="st3"/>
			</g>
			<g id="shape32-77" v:mID="32" v:groupContext="groupContent">
				<v:textBlock v:margins="rect(4,4,4,4)" v:tabSpace="42.5197"/>
				<v:textRect cx="42.5197" cy="504.567" width="85.04" height="28.3465"/>
				<path d="M85.04 504.57 A42.5197 14.1732 -180 1 0 0 504.57 A42.5197 14.1732 -180 1 0 85.04 504.57 Z" class="st1"/>
				<text x="38.18" y="507.57" class="st2" v:langID="2057"><v:paragraph v:horizAlign="1"/><v:tabList/>ID</text>			</g>
		</g>
		<g id="group40-80" transform="translate(517.323,-472.394)" v:mID="40" v:groupContext="group">
			<v:userDefs>
				<v:ud v:nameU="AttributeName" v:prompt="" v:val="VT4()"/>
				<v:ud v:nameU="PrimaryKey" v:prompt="" v:val="VT0(0):26"/>
				<v:ud v:nameU="Multivalue" v:prompt="" v:val="VT0(0):26"/>
				<v:ud v:nameU="Derived" v:prompt="" v:val="VT0(0):26"/>
				<v:ud v:nameU="Required" v:prompt="" v:val="VT0(0):5"/>
				<v:ud v:nameU="msvStructureType" v:prompt="" v:val="VT4(Callout)"/>
				<v:ud v:nameU="msvSDTargetIntersection" v:prompt=""/>
				<v:ud v:nameU="msvSDCalloutNoHighlight" v:prompt="" v:val="VT0(0):5"/>
				<v:ud v:nameU="msvShapeCategories" v:prompt="" v:val="VT4(Database;DbAttribute)"/>
				<v:ud v:nameU="Side" v:prompt="" v:val="VT0(4):26"/>
				<v:ud v:nameU="LeaderEnd" v:prompt="" v:val="VT7(PNT(7.5MM,-14.4MM)):40"/>
				<v:ud v:nameU="WHBoxIntersection" v:prompt="" v:val="VT7(PNT(12.115384615385MM,0MM)):40"/>
				<v:ud v:nameU="visVersion" v:prompt="" v:val="VT0(15):26"/>
				<v:ud v:nameU="AttributeName" v:prompt="" v:val="VT4(ID)"/>
				<v:ud v:nameU="msvSDTargetIntersection" v:prompt="" v:val="VT7(PNT(-1.279527594724,-0.026392538524575)):40"/>
				<v:ud v:nameU="Side" v:prompt="" v:val="VT0(3):26"/>
				<v:ud v:nameU="LeaderEnd" v:prompt="" v:val="VT7(PNT(-1.279527594724,-0.026392538524575)):40"/>
				<v:ud v:nameU="WHBoxIntersection" v:prompt="" v:val="VT7(PNT(0MM,0)):40"/>
			</v:userDefs>
			<title>Attribute.40</title>
			<desc>ID</desc>
			<g id="shape41-81" v:mID="41" v:groupContext="shape">
				<title>Sheet.41</title>
				<v:userDefs>
					<v:ud v:nameU="LeaderEnd" v:prompt="" v:val="VT7(PNT(7.5MM,-14.4MM)):40"/>
					<v:ud v:nameU="LeaderEnd" v:prompt="" v:val="VT7(PNT(-1.279527594724,-0.026392538524575)):40"/>
				</v:userDefs>
				<path d="M42.52 504.57 L-92.13 520.64" class="st3"/>
			</g>
			<g id="shape40-84" v:mID="40" v:groupContext="groupContent">
				<v:textBlock v:margins="rect(4,4,4,4)" v:tabSpace="42.5197"/>
				<v:textRect cx="42.5197" cy="504.567" width="85.04" height="28.3465"/>
				<path d="M85.04 504.57 A42.5197 14.1732 -180 1 0 0 504.57 A42.5197 14.1732 -180 1 0 85.04 504.57 Z" class="st1"/>
				<text x="38.18" y="507.57" class="st2" v:langID="2057"><v:paragraph v:horizAlign="1"/><v:tabList/>ID</text>			</g>
		</g>
		<g id="shape42-87" v:mID="42" v:groupContext="shape" transform="translate(333.071,-370.76)">
			<title>Relationship</title>
			<desc>HAS</desc>
			<v:userDefs>
				<v:ud v:nameU="msvShapeCategories" v:prompt="" v:val="VT4(Database;DbRelationshipNode)"/>
				<v:ud v:nameU="RelationshipName" v:prompt="" v:val="VT4()"/>
				<v:ud v:nameU="Identifying" v:prompt="" v:val="VT0(0):26"/>
				<v:ud v:nameU="visVersion" v:prompt="" v:val="VT0(15):26"/>
				<v:ud v:nameU="RelationshipName" v:prompt="" v:val="VT4(HAS)"/>
			</v:userDefs>
			<v:textBlock v:margins="rect(4,4,4,4)" v:tabSpace="42.5197"/>
			<v:textRect cx="35.4331" cy="493.228" width="70.87" height="51.0236"/>
			<path d="M35.43 518.74 L70.87 493.23 L35.43 467.72 L0 493.23 L35.43 518.74 Z" class="st1"/>
			<text x="27.13" y="496.23" class="st2" v:langID="2057"><v:paragraph v:horizAlign="1"/><v:tabList/>HAS</text>		</g>
		<g id="group43-90" transform="translate(361.417,-370.76)" v:mID="43" v:groupContext="group" v:layerMember="0">
			<v:userDefs>
				<v:ud v:nameU="visVersion" v:prompt="" v:val="VT0(15):26"/>
				<v:ud v:nameU="ShowMulti" v:prompt="" v:val="VT0(0):26"/>
				<v:ud v:nameU="BeginAngle" v:prompt="" v:val="VT0(-0.78539816339745):32"/>
				<v:ud v:nameU="BeginAngle" v:prompt="" v:val="VT0(-1.5707963267949):32"/>
			</v:userDefs>
			<title>Dynamic connector</title>
			<desc>n</desc>
			<g id="shape43-91" v:mID="43" v:groupContext="groupContent" v:layerMember="0">
				<v:textBlock v:margins="rect(4,4,4,4)" v:tabSpace="42.5197"/>
				<v:textRect cx="-7.08661" cy="532.335" width="40" height="17.6036"/>
				<path d="M7.09 518.74 L7.09 550.05" class="st5"/>
				<rect v:rectContext="textBkgnd" x="-9.18824" y="527.536" width="4.20309" height="9.59985" class="st6"/>
				<text x="-9.19" y="534.74" class="st7" v:langID="2057"><v:paragraph v:horizAlign="1"/><v:tabList/>n</text>			</g>
		</g>
		<g id="group48-96" transform="translate(361.417,-453.096)" v:mID="48" v:groupContext="group" v:layerMember="0">
			<v:userDefs>
				<v:ud v:nameU="visVersion" v:prompt="" v:val="VT0(15):26"/>
				<v:ud v:nameU="ShowMulti" v:prompt="" v:val="VT0(0):26"/>
				<v:ud v:nameU="BeginAngle" v:prompt="" v:val="VT0(-0.78539816339745):32"/>
				<v:ud v:nameU="BeginAngle" v:prompt="" v:val="VT0(-1.5707963267949):32"/>
			</v:userDefs>
			<title>Dynamic connector.48</title>
			<desc>1</desc>
			<g id="shape48-97" v:mID="48" v:groupContext="groupContent" v:layerMember="0">
				<v:textBlock v:margins="rect(4,4,4,4)" v:tabSpace="42.5197"/>
				<v:textRect cx="-7.08661" cy="538.135" width="40" height="17.6036"/>
				<path d="M7.09 518.74 L7.09 550.05" class="st5"/>
				<rect v:rectContext="textBkgnd" x="-9.11408" y="533.335" width="4.05478" height="9.59985" class="st6"/>
				<text x="-9.11" y="540.54" class="st7" v:langID="2057"><v:paragraph v:horizAlign="1"/><v:tabList/>1</text>			</g>
		</g>
		<g id="shape54-102" v:mID="54" v:groupContext="shape" transform="translate(439.37,-240.945)">
			<title>Relationship.54</title>
			<desc>Access Authorization</desc>
			<v:userDefs>
				<v:ud v:nameU="msvShapeCategories" v:prompt="" v:val="VT4(Database;DbRelationshipNode)"/>
				<v:ud v:nameU="RelationshipName" v:prompt="" v:val="VT4()"/>
				<v:ud v:nameU="Identifying" v:prompt="" v:val="VT0(0):26"/>
				<v:ud v:nameU="visVersion" v:prompt="" v:val="VT0(15):26"/>
				<v:ud v:nameU="RelationshipName" v:prompt="" v:val="VT4(Access&#10;Authorization)"/>
			</v:userDefs>
			<v:textBlock v:margins="rect(4,4,4,4)" v:tabSpace="42.5197"/>
			<v:textRect cx="35.4331" cy="493.228" width="70.87" height="51.0236"/>
			<path d="M35.43 518.74 L70.87 493.23 L35.43 467.72 L0 493.23 L35.43 518.74 Z" class="st1"/>
			<text x="21.91" y="490.23" class="st2" v:langID="2057"><v:paragraph v:horizAlign="1"/><v:tabList/>Access<v:newlineChar/><tspan
						x="7.63" dy="1.2em" class="st4">Authorization</tspan></text>		</g>
		<g id="group56-106" transform="translate(425.197,-318.189)" v:mID="56" v:groupContext="group" v:layerMember="0">
			<v:userDefs>
				<v:ud v:nameU="visVersion" v:prompt="" v:val="VT0(15):26"/>
				<v:ud v:nameU="ShowMulti" v:prompt="" v:val="VT0(0):26"/>
				<v:ud v:nameU="BeginAngle" v:prompt="" v:val="VT0(-0.78539816339745):32"/>
				<v:ud v:nameU="BeginAngle" v:prompt="" v:val="VT0(-1.0752446533091):32"/>
			</v:userDefs>
			<title>Dynamic connector.56</title>
			<desc>n</desc>
			<g id="shape56-107" v:mID="56" v:groupContext="groupContent" v:layerMember="0">
				<v:textBlock v:margins="rect(4,4,4,4)" v:tabSpace="42.5197"/>
				<v:textRect cx="-2.00437" cy="544.838" width="40" height="17.6036"/>
				<path d="M0 518.74 L24.1 563.33" class="st5"/>
				<rect v:rectContext="textBkgnd" x="-4.10599" y="540.038" width="4.20309" height="9.59985" class="st6"/>
				<text x="-4.11" y="547.24" class="st7" v:langID="2057"><v:paragraph v:horizAlign="1"/><v:tabList/>n</text>			</g>
		</g>
		<g id="group66-112" transform="translate(483.197,-246.988)" v:mID="66" v:groupContext="group" v:layerMember="0">
			<v:userDefs>
				<v:ud v:nameU="visVersion" v:prompt="" v:val="VT0(15):26"/>
				<v:ud v:nameU="ShowMulti" v:prompt="" v:val="VT0(0):26"/>
				<v:ud v:nameU="BeginAngle" v:prompt="" v:val="VT0(-0.78539816339745):32"/>
				<v:ud v:nameU="BeginAngle" v:prompt="" v:val="VT0(-0.21988185006819):32"/>
			</v:userDefs>
			<title>Dynamic connector.66</title>
			<desc>n</desc>
			<g id="shape66-113" v:mID="66" v:groupContext="groupContent" v:layerMember="0">
				<v:textBlock v:margins="rect(4,4,4,4)" v:tabSpace="42.5197"/>
				<v:textRect cx="78.6082" cy="550.832" width="40" height="17.6036"/>
				<path d="M0 518.74 L188.17 560.79" class="st5"/>
				<rect v:rectContext="textBkgnd" x="76.5066" y="546.032" width="4.20309" height="9.59985" class="st6"/>
				<text x="76.51" y="553.23" class="st7" v:langID="2057"><v:paragraph v:horizAlign="1"/><v:tabList/>n</text>			</g>
		</g>
		<g id="group72-118" transform="translate(467.717,-240.945)" v:mID="72" v:groupContext="group" v:layerMember="0">
			<v:userDefs>
				<v:ud v:nameU="visVersion" v:prompt="" v:val="VT0(15):26"/>
				<v:ud v:nameU="ShowMulti" v:prompt="" v:val="VT0(0):26"/>
				<v:ud v:nameU="BeginAngle" v:prompt="" v:val="VT0(-0.78539816339745):32"/>
				<v:ud v:nameU="BeginAngle" v:prompt="" v:val="VT0(-1.5707963267949):32"/>
			</v:userDefs>
			<title>Dynamic connector.72</title>
			<desc>n</desc>
			<g id="shape72-119" v:mID="72" v:groupContext="groupContent" v:layerMember="0">
				<v:textBlock v:margins="rect(4,4,4,4)" v:tabSpace="42.5197"/>
				<v:textRect cx="-7.08661" cy="534.376" width="40" height="17.6036"/>
				<path d="M7.09 518.74 L7.09 554.75" class="st5"/>
				<rect v:rectContext="textBkgnd" x="-9.18824" y="529.576" width="4.20309" height="9.59985" class="st6"/>
				<text x="-9.19" y="536.78" class="st7" v:langID="2057"><v:paragraph v:horizAlign="1"/><v:tabList/>n</text>			</g>
		</g>
		<g id="group77-124" transform="translate(263.272,-245.301)" v:mID="77" v:groupContext="group" v:layerMember="0">
			<v:userDefs>
				<v:ud v:nameU="visVersion" v:prompt="" v:val="VT0(15):26"/>
				<v:ud v:nameU="ShowMulti" v:prompt="" v:val="VT0(0):26"/>
				<v:ud v:nameU="BeginAngle" v:prompt="" v:val="VT0(-0.78539816339745):32"/>
				<v:ud v:nameU="BeginAngle" v:prompt="" v:val="VT0(-2.741085943629):32"/>
			</v:userDefs>
			<title>Dynamic connector.77</title>
			<desc>n</desc>
			<g id="shape77-125" v:mID="77" v:groupContext="groupContent" v:layerMember="0">
				<v:textBlock v:margins="rect(4,4,4,4)" v:tabSpace="42.5197"/>
				<v:textRect cx="-52.1432" cy="525.426" width="40" height="17.6036"/>
				<path d="M0 518.74 L-107.37 564.2" class="st5"/>
				<rect v:rectContext="textBkgnd" x="-54.2448" y="520.626" width="4.20309" height="9.59985" class="st6"/>
				<text x="-54.24" y="527.83" class="st7" v:langID="2057"><v:paragraph v:horizAlign="1"/><v:tabList/>n</text>			</g>
		</g>
		<g id="group93-130" transform="translate(517.323,-311.102)" v:mID="93" v:groupContext="group">
			<v:userDefs>
				<v:ud v:nameU="AttributeName" v:prompt="" v:val="VT4()"/>
				<v:ud v:nameU="PrimaryKey" v:prompt="" v:val="VT0(0):26"/>
				<v:ud v:nameU="Multivalue" v:prompt="" v:val="VT0(0):26"/>
				<v:ud v:nameU="Derived" v:prompt="" v:val="VT0(0):26"/>
				<v:ud v:nameU="Required" v:prompt="" v:val="VT0(0):5"/>
				<v:ud v:nameU="msvStructureType" v:prompt="" v:val="VT4(Callout)"/>
				<v:ud v:nameU="msvSDTargetIntersection" v:prompt=""/>
				<v:ud v:nameU="msvSDCalloutNoHighlight" v:prompt="" v:val="VT0(0):5"/>
				<v:ud v:nameU="msvShapeCategories" v:prompt="" v:val="VT4(Database;DbAttribute)"/>
				<v:ud v:nameU="Side" v:prompt="" v:val="VT0(4):26"/>
				<v:ud v:nameU="LeaderEnd" v:prompt="" v:val="VT7(PNT(7.5MM,-14.4MM)):40"/>
				<v:ud v:nameU="WHBoxIntersection" v:prompt="" v:val="VT7(PNT(12.115384615385MM,0MM)):40"/>
				<v:ud v:nameU="visVersion" v:prompt="" v:val="VT0(15):26"/>
				<v:ud v:nameU="AttributeName" v:prompt="" v:val="VT4(ROLE NAME)"/>
				<v:ud v:nameU="msvSDTargetIntersection" v:prompt="" v:val="VT7(PNT(-1.279527594724,0.23148148214202)):40"/>
				<v:ud v:nameU="Side" v:prompt="" v:val="VT0(3):26"/>
				<v:ud v:nameU="LeaderEnd" v:prompt="" v:val="VT7(PNT(-1.279527594724,0.23148148214202)):40"/>
				<v:ud v:nameU="WHBoxIntersection" v:prompt="" v:val="VT7(PNT(0MM,5.2777777777778MM)):40"/>
			</v:userDefs>
			<title>Attribute.93</title>
			<desc>ROLE NAME</desc>
			<g id="shape94-131" v:mID="94" v:groupContext="shape">
				<title>Sheet.94</title>
				<v:userDefs>
					<v:ud v:nameU="LeaderEnd" v:prompt="" v:val="VT7(PNT(7.5MM,-14.4MM)):40"/>
					<v:ud v:nameU="LeaderEnd" v:prompt="" v:val="VT7(PNT(-1.279527594724,0.23148148214202)):40"/>
				</v:userDefs>
				<path d="M42.52 504.57 L-92.13 502.07" class="st3"/>
			</g>
			<g id="shape93-134" v:mID="93" v:groupContext="groupContent">
				<v:textBlock v:margins="rect(4,4,4,4)" v:tabSpace="42.5197"/>
				<v:textRect cx="42.5197" cy="504.567" width="85.04" height="28.3465"/>
				<path d="M85.04 504.57 A42.5197 14.1732 -180 1 0 0 504.57 A42.5197 14.1732 -180 1 0 85.04 504.57 Z" class="st1"/>
				<text x="17.98" y="507.57" class="st2" v:langID="2057"><v:paragraph v:horizAlign="1"/><v:tabList/>ROLE NAME</text>			</g>
		</g>
		<g id="group95-137" transform="translate(517.323,-425.943)" v:mID="95" v:groupContext="group">
			<v:userDefs>
				<v:ud v:nameU="AttributeName" v:prompt="" v:val="VT4()"/>
				<v:ud v:nameU="PrimaryKey" v:prompt="" v:val="VT0(0):26"/>
				<v:ud v:nameU="Multivalue" v:prompt="" v:val="VT0(0):26"/>
				<v:ud v:nameU="Derived" v:prompt="" v:val="VT0(0):26"/>
				<v:ud v:nameU="Required" v:prompt="" v:val="VT0(0):5"/>
				<v:ud v:nameU="msvStructureType" v:prompt="" v:val="VT4(Callout)"/>
				<v:ud v:nameU="msvSDTargetIntersection" v:prompt=""/>
				<v:ud v:nameU="msvSDCalloutNoHighlight" v:prompt="" v:val="VT0(0):5"/>
				<v:ud v:nameU="msvShapeCategories" v:prompt="" v:val="VT4(Database;DbAttribute)"/>
				<v:ud v:nameU="Side" v:prompt="" v:val="VT0(4):26"/>
				<v:ud v:nameU="LeaderEnd" v:prompt="" v:val="VT7(PNT(7.5MM,-14.4MM)):40"/>
				<v:ud v:nameU="WHBoxIntersection" v:prompt="" v:val="VT7(PNT(12.115384615385MM,0MM)):40"/>
				<v:ud v:nameU="visVersion" v:prompt="" v:val="VT0(15):26"/>
				<v:ud v:nameU="AttributeName" v:prompt="" v:val="VT4(USER NAME)"/>
				<v:ud v:nameU="msvSDTargetIntersection" v:prompt="" v:val="VT7(PNT(-1.279527594724,0.42760280405129)):40"/>
				<v:ud v:nameU="Side" v:prompt="" v:val="VT0(3):26"/>
				<v:ud v:nameU="LeaderEnd" v:prompt="" v:val="VT7(PNT(-1.279527594724,0.42760280405129)):40"/>
				<v:ud v:nameU="WHBoxIntersection" v:prompt="" v:val="VT7(PNT(0MM,0.39370078740158)):40"/>
			</v:userDefs>
			<title>Attribute.95</title>
			<desc>USER NAME</desc>
			<g id="shape96-138" v:mID="96" v:groupContext="shape">
				<title>Sheet.96</title>
				<v:userDefs>
					<v:ud v:nameU="LeaderEnd" v:prompt="" v:val="VT7(PNT(7.5MM,-14.4MM)):40"/>
					<v:ud v:nameU="LeaderEnd" v:prompt="" v:val="VT7(PNT(-1.279527594724,0.42760280405129)):40"/>
				</v:userDefs>
				<path d="M42.52 504.57 L-92.13 487.95" class="st3"/>
			</g>
			<g id="shape95-141" v:mID="95" v:groupContext="groupContent">
				<v:textBlock v:margins="rect(4,4,4,4)" v:tabSpace="42.5197"/>
				<v:textRect cx="42.5197" cy="504.567" width="85.04" height="28.3465"/>
				<path d="M85.04 504.57 A42.5197 14.1732 -180 1 0 0 504.57 A42.5197 14.1732 -180 1 0 85.04 504.57 Z" class="st1"/>
				<text x="17.89" y="507.57" class="st2" v:langID="2057"><v:paragraph v:horizAlign="1"/><v:tabList/>USER NAME</text>			</g>
		</g>
		<g id="shape97-144" v:mID="97" v:groupContext="shape" transform="translate(240.96,-235.854)">
			<title>Relationship.97</title>
			<desc>Execute Authrization</desc>
			<v:userDefs>
				<v:ud v:nameU="msvShapeCategories" v:prompt="" v:val="VT4(Database;DbRelationshipNode)"/>
				<v:ud v:nameU="RelationshipName" v:prompt="" v:val="VT4()"/>
				<v:ud v:nameU="Identifying" v:prompt="" v:val="VT0(0):26"/>
				<v:ud v:nameU="visVersion" v:prompt="" v:val="VT0(15):26"/>
				<v:ud v:nameU="RelationshipName" v:prompt="" v:val="VT4(Execute&#10;Authrization)"/>
			</v:userDefs>
			<v:textBlock v:margins="rect(4,4,4,4)" v:tabSpace="42.5197"/>
			<v:textRect cx="35.4331" cy="493.228" width="70.87" height="51.0236"/>
			<path d="M35.43 518.74 L70.87 493.23 L35.43 467.72 L0 493.23 L35.43 518.74 Z" class="st1"/>
			<text x="19.43" y="490.23" class="st2" v:langID="2057"><v:paragraph v:horizAlign="1"/><v:tabList/>Execute<v:newlineChar/><tspan
						x="10.26" dy="1.2em" class="st4">Authrization</tspan></text>		</g>
		<g id="shape98-148" v:mID="98" v:groupContext="shape" transform="translate(226.772,-182.126)">
			<title>Entity.98</title>
			<desc>MODEL</desc>
			<v:userDefs>
				<v:ud v:nameU="msvShapeCategories" v:prompt="" v:val="VT4(Database;DbEntity)"/>
				<v:ud v:nameU="EntityName" v:prompt="" v:val="VT4()"/>
				<v:ud v:nameU="EntityNameSpace" v:prompt="" v:val="VT4()"/>
				<v:ud v:nameU="Weak" v:prompt="" v:val="VT0(0):26"/>
				<v:ud v:nameU="Composite" v:prompt="" v:val="VT0(0):26"/>
				<v:ud v:nameU="visVersion" v:prompt="" v:val="VT0(15):26"/>
				<v:ud v:nameU="EntityName" v:prompt="" v:val="VT4(MODEL)"/>
				<v:ud v:nameU="EntityNameSpace" v:prompt="" v:val="VT4(MODEL)"/>
			</v:userDefs>
			<v:textBlock v:margins="rect(4,4,4,4)" v:tabSpace="42.5197"/>
			<v:textRect cx="56.6929" cy="508.11" width="113.39" height="21.2598"/>
			<path d="M0 518.74 L113.39 518.74 L113.39 497.48 L0 497.48 L0 518.74 Z" class="st1"/>
			<text x="41.49" y="511.11" class="st2" v:langID="2057"><v:paragraph v:horizAlign="1"/><v:tabList/>MODEL</text>		</g>
		<g id="group99-151" transform="translate(198.425,-82.9134)" v:mID="99" v:groupContext="group">
			<v:userDefs>
				<v:ud v:nameU="AttributeName" v:prompt="" v:val="VT4()"/>
				<v:ud v:nameU="PrimaryKey" v:prompt="" v:val="VT0(0):26"/>
				<v:ud v:nameU="Multivalue" v:prompt="" v:val="VT0(0):26"/>
				<v:ud v:nameU="Derived" v:prompt="" v:val="VT0(0):26"/>
				<v:ud v:nameU="Required" v:prompt="" v:val="VT0(0):5"/>
				<v:ud v:nameU="msvStructureType" v:prompt="" v:val="VT4(Callout)"/>
				<v:ud v:nameU="msvSDTargetIntersection" v:prompt=""/>
				<v:ud v:nameU="msvSDCalloutNoHighlight" v:prompt="" v:val="VT0(0):5"/>
				<v:ud v:nameU="msvShapeCategories" v:prompt="" v:val="VT4(Database;DbAttribute)"/>
				<v:ud v:nameU="Side" v:prompt="" v:val="VT0(4):26"/>
				<v:ud v:nameU="LeaderEnd" v:prompt="" v:val="VT7(PNT(7.5MM,-14.4MM)):40"/>
				<v:ud v:nameU="WHBoxIntersection" v:prompt="" v:val="VT7(PNT(12.115384615385MM,0MM)):40"/>
				<v:ud v:nameU="visVersion" v:prompt="" v:val="VT0(15):26"/>
				<v:ud v:nameU="AttributeName" v:prompt="" v:val="VT4(Universal ID)"/>
				<v:ud v:nameU="msvSDTargetIntersection" v:prompt="" v:val="VT7(PNT(1.1154855643045,1.3779527559055)):40"/>
				<v:ud v:nameU="Side" v:prompt="" v:val="VT0(2):26"/>
				<v:ud v:nameU="LeaderEnd" v:prompt="" v:val="VT7(PNT(1.1154855643045,1.3779527559055)):40"/>
				<v:ud v:nameU="WHBoxIntersection" v:prompt="" v:val="VT7(PNT(17.222222222222MM,0.39370078740158)):40"/>
			</v:userDefs>
			<title>Attribute.99</title>
			<desc>Universal ID</desc>
			<g id="shape100-152" v:mID="100" v:groupContext="shape">
				<title>Sheet.100</title>
				<v:userDefs>
					<v:ud v:nameU="LeaderEnd" v:prompt="" v:val="VT7(PNT(7.5MM,-14.4MM)):40"/>
					<v:ud v:nameU="LeaderEnd" v:prompt="" v:val="VT7(PNT(1.1154855643045,1.3779527559055)):40"/>
				</v:userDefs>
				<path d="M42.52 504.57 L80.31 419.53" class="st3"/>
			</g>
			<g id="shape99-155" v:mID="99" v:groupContext="groupContent">
				<v:textBlock v:margins="rect(4,4,4,4)" v:tabSpace="42.5197"/>
				<v:textRect cx="42.5197" cy="504.567" width="85.04" height="28.3465"/>
				<path d="M85.04 504.57 A42.5197 14.1732 -180 1 0 0 504.57 A42.5197 14.1732 -180 1 0 85.04 504.57 Z" class="st1"/>
				<text x="18.08" y="507.57" class="st2" v:langID="2057"><v:paragraph v:horizAlign="1"/><v:tabList/>Universal ID</text>			</g>
		</g>
		<g id="group103-158" transform="translate(283.465,-82.9134)" v:mID="103" v:groupContext="group">
			<v:userDefs>
				<v:ud v:nameU="AttributeName" v:prompt="" v:val="VT4()"/>
				<v:ud v:nameU="PrimaryKey" v:prompt="" v:val="VT0(0):26"/>
				<v:ud v:nameU="Multivalue" v:prompt="" v:val="VT0(0):26"/>
				<v:ud v:nameU="Derived" v:prompt="" v:val="VT0(0):26"/>
				<v:ud v:nameU="Required" v:prompt="" v:val="VT0(0):5"/>
				<v:ud v:nameU="msvStructureType" v:prompt="" v:val="VT4(Callout)"/>
				<v:ud v:nameU="msvSDTargetIntersection" v:prompt=""/>
				<v:ud v:nameU="msvSDCalloutNoHighlight" v:prompt="" v:val="VT0(0):5"/>
				<v:ud v:nameU="msvShapeCategories" v:prompt="" v:val="VT4(Database;DbAttribute)"/>
				<v:ud v:nameU="Side" v:prompt="" v:val="VT0(4):26"/>
				<v:ud v:nameU="LeaderEnd" v:prompt="" v:val="VT7(PNT(7.5MM,-14.4MM)):40"/>
				<v:ud v:nameU="WHBoxIntersection" v:prompt="" v:val="VT7(PNT(12.115384615385MM,0MM)):40"/>
				<v:ud v:nameU="visVersion" v:prompt="" v:val="VT0(15):26"/>
				<v:ud v:nameU="AttributeName" v:prompt="" v:val="VT4(NAME)"/>
				<v:ud v:nameU="msvSDTargetIntersection" v:prompt="" v:val="VT7(PNT(0.065616797900262,1.3779527559055)):40"/>
				<v:ud v:nameU="Side" v:prompt="" v:val="VT0(2):26"/>
				<v:ud v:nameU="LeaderEnd" v:prompt="" v:val="VT7(PNT(0.065616797900262,1.3779527559055)):40"/>
				<v:ud v:nameU="WHBoxIntersection" v:prompt="" v:val="VT7(PNT(12.777777777778MM,0.39370078740158)):40"/>
			</v:userDefs>
			<title>Attribute.103</title>
			<desc>NAME</desc>
			<g id="shape104-159" v:mID="104" v:groupContext="shape">
				<title>Sheet.104</title>
				<v:userDefs>
					<v:ud v:nameU="LeaderEnd" v:prompt="" v:val="VT7(PNT(7.5MM,-14.4MM)):40"/>
					<v:ud v:nameU="LeaderEnd" v:prompt="" v:val="VT7(PNT(0.065616797900262,1.3779527559055)):40"/>
				</v:userDefs>
				<path d="M42.52 504.57 L4.72 419.53" class="st3"/>
			</g>
			<g id="shape103-162" v:mID="103" v:groupContext="groupContent">
				<v:textBlock v:margins="rect(4,4,4,4)" v:tabSpace="42.5197"/>
				<v:textRect cx="42.5197" cy="504.567" width="85.04" height="28.3465"/>
				<path d="M85.04 504.57 A42.5197 14.1732 -180 1 0 0 504.57 A42.5197 14.1732 -180 1 0 85.04 504.57 Z" class="st1"/>
				<text x="29.68" y="507.57" class="st2" v:langID="2057"><v:paragraph v:horizAlign="1"/><v:tabList/>NAME</text>			</g>
		</g>
		<g id="group105-165" transform="translate(263.632,-239.939)" v:mID="105" v:groupContext="group" v:layerMember="0">
			<v:userDefs>
				<v:ud v:nameU="visVersion" v:prompt="" v:val="VT0(15):26"/>
				<v:ud v:nameU="ShowMulti" v:prompt="" v:val="VT0(0):26"/>
				<v:ud v:nameU="BeginAngle" v:prompt="" v:val="VT0(-0.78539816339745):32"/>
				<v:ud v:nameU="BeginAngle" v:prompt="" v:val="VT0(-1.5707963267949):32"/>
			</v:userDefs>
			<title>Dynamic connector.105</title>
			<desc>n</desc>
			<g id="shape105-166" v:mID="105" v:groupContext="groupContent" v:layerMember="0">
				<v:textBlock v:margins="rect(4,4,4,4)" v:tabSpace="42.5197"/>
				<v:textRect cx="-7.08661" cy="534.611" width="40" height="17.6036"/>
				<path d="M7.09 518.74 L7.09 555.29" class="st5"/>
				<rect v:rectContext="textBkgnd" x="-9.18824" y="529.811" width="4.20309" height="9.59985" class="st6"/>
				<text x="-9.19" y="537.01" class="st7" v:langID="2057"><v:paragraph v:horizAlign="1"/><v:tabList/>n</text>			</g>
		</g>
		<g id="group110-171" transform="translate(311.811,-328.819)" v:mID="110" v:groupContext="group" v:layerMember="0">
			<v:userDefs>
				<v:ud v:nameU="visVersion" v:prompt="" v:val="VT0(15):26"/>
				<v:ud v:nameU="ShowMulti" v:prompt="" v:val="VT0(0):26"/>
				<v:ud v:nameU="BeginAngle" v:prompt="" v:val="VT0(-0.78539816339745):32"/>
				<v:ud v:nameU="BeginAngle" v:prompt="" v:val="VT0(-2.2720677853763):32"/>
			</v:userDefs>
			<title>Dynamic connector.110</title>
			<desc>n</desc>
			<g id="shape110-172" v:mID="110" v:groupContext="groupContent" v:layerMember="0">
				<v:textBlock v:margins="rect(4,4,4,4)" v:tabSpace="42.5197"/>
				<v:textRect cx="-26.2068" cy="527.806" width="40" height="17.6036"/>
				<path d="M0 518.74 L-35.42 560.68" class="st5"/>
				<rect v:rectContext="textBkgnd" x="-28.3084" y="523.006" width="4.20309" height="9.59985" class="st6"/>
				<text x="-28.31" y="530.21" class="st7" v:langID="2057"><v:paragraph v:horizAlign="1"/><v:tabList/>n</text>			</g>
		</g>
		<g id="group115-177" transform="translate(240.945,-41.9416)" v:mID="115" v:groupContext="group">
			<v:userDefs>
				<v:ud v:nameU="AttributeName" v:prompt="" v:val="VT4()"/>
				<v:ud v:nameU="PrimaryKey" v:prompt="" v:val="VT0(0):26"/>
				<v:ud v:nameU="Multivalue" v:prompt="" v:val="VT0(0):26"/>
				<v:ud v:nameU="Derived" v:prompt="" v:val="VT0(0):26"/>
				<v:ud v:nameU="Required" v:prompt="" v:val="VT0(0):5"/>
				<v:ud v:nameU="msvStructureType" v:prompt="" v:val="VT4(Callout)"/>
				<v:ud v:nameU="msvSDTargetIntersection" v:prompt=""/>
				<v:ud v:nameU="msvSDCalloutNoHighlight" v:prompt="" v:val="VT0(0):5"/>
				<v:ud v:nameU="msvShapeCategories" v:prompt="" v:val="VT4(Database;DbAttribute)"/>
				<v:ud v:nameU="Side" v:prompt="" v:val="VT0(4):26"/>
				<v:ud v:nameU="LeaderEnd" v:prompt="" v:val="VT7(PNT(7.5MM,-14.4MM)):40"/>
				<v:ud v:nameU="WHBoxIntersection" v:prompt="" v:val="VT7(PNT(12.115384615385MM,0MM)):40"/>
				<v:ud v:nameU="visVersion" v:prompt="" v:val="VT0(15):26"/>
				<v:ud v:nameU="AttributeName" v:prompt="" v:val="VT4(Resource URI)"/>
				<v:ud v:nameU="msvSDTargetIntersection" v:prompt="" v:val="VT7(PNT(0.59055118110236,1.9470058019063)):40"/>
				<v:ud v:nameU="Side" v:prompt="" v:val="VT0(2):26"/>
				<v:ud v:nameU="LeaderEnd" v:prompt="" v:val="VT7(PNT(0.59055118110236,1.9470058019063)):40"/>
				<v:ud v:nameU="WHBoxIntersection" v:prompt="" v:val="VT7(PNT(15MM,0.39370078740158)):40"/>
			</v:userDefs>
			<title>Attribute.115</title>
			<desc>Resource URI</desc>
			<g id="shape116-178" v:mID="116" v:groupContext="shape">
				<title>Sheet.116</title>
				<v:userDefs>
					<v:ud v:nameU="LeaderEnd" v:prompt="" v:val="VT7(PNT(7.5MM,-14.4MM)):40"/>
					<v:ud v:nameU="LeaderEnd" v:prompt="" v:val="VT7(PNT(0.59055118110236,1.9470058019063)):40"/>
				</v:userDefs>
				<path d="M42.52 504.57 L42.52 378.56" class="st3"/>
			</g>
			<g id="shape115-181" v:mID="115" v:groupContext="groupContent">
				<v:textBlock v:margins="rect(4,4,4,4)" v:tabSpace="42.5197"/>
				<v:textRect cx="42.5197" cy="504.567" width="85.04" height="28.3465"/>
				<path d="M85.04 504.57 A42.5197 14.1732 -180 1 0 0 504.57 A42.5197 14.1732 -180 1 0 85.04 504.57 Z" class="st1"/>
				<text x="15.44" y="507.57" class="st2" v:langID="2057"><v:paragraph v:horizAlign="1"/><v:tabList/>Resource URI</text>			</g>
		</g>
		<g id="group117-184" transform="translate(517.323,-273.804)" v:mID="117" v:groupContext="group">
			<v:userDefs>
				<v:ud v:nameU="AttributeName" v:prompt="" v:val="VT4()"/>
				<v:ud v:nameU="PrimaryKey" v:prompt="" v:val="VT0(0):26"/>
				<v:ud v:nameU="Multivalue" v:prompt="" v:val="VT0(0):26"/>
				<v:ud v:nameU="Derived" v:prompt="" v:val="VT0(0):26"/>
				<v:ud v:nameU="Required" v:prompt="" v:val="VT0(0):5"/>
				<v:ud v:nameU="msvStructureType" v:prompt="" v:val="VT4(Callout)"/>
				<v:ud v:nameU="msvSDTargetIntersection" v:prompt=""/>
				<v:ud v:nameU="msvSDCalloutNoHighlight" v:prompt="" v:val="VT0(0):5"/>
				<v:ud v:nameU="msvShapeCategories" v:prompt="" v:val="VT4(Database;DbAttribute)"/>
				<v:ud v:nameU="Side" v:prompt="" v:val="VT0(4):26"/>
				<v:ud v:nameU="LeaderEnd" v:prompt="" v:val="VT7(PNT(7.5MM,-14.4MM)):40"/>
				<v:ud v:nameU="WHBoxIntersection" v:prompt="" v:val="VT7(PNT(12.115384615385MM,0MM)):40"/>
				<v:ud v:nameU="visVersion" v:prompt="" v:val="VT0(15):26"/>
				<v:ud v:nameU="AttributeName" v:prompt="" v:val="VT4(Institue NAME)"/>
				<v:ud v:nameU="msvSDTargetIntersection" v:prompt="" v:val="VT7(PNT(-1.3752561751699,0.61645254869457)):40"/>
				<v:ud v:nameU="Side" v:prompt="" v:val="VT0(3):26"/>
				<v:ud v:nameU="LeaderEnd" v:prompt="" v:val="VT7(PNT(-1.3752561751699,0.61645254869457)):40"/>
				<v:ud v:nameU="WHBoxIntersection" v:prompt="" v:val="VT7(PNT(0MM,0.39370078740158)):40"/>
			</v:userDefs>
			<title>Attribute.117</title>
			<desc>Institue NAME</desc>
			<g id="shape118-185" v:mID="118" v:groupContext="shape">
				<title>Sheet.118</title>
				<v:userDefs>
					<v:ud v:nameU="LeaderEnd" v:prompt="" v:val="VT7(PNT(7.5MM,-14.4MM)):40"/>
					<v:ud v:nameU="LeaderEnd" v:prompt="" v:val="VT7(PNT(-1.3752561751699,0.61645254869457)):40"/>
				</v:userDefs>
				<path d="M42.52 504.57 L-99.02 474.36" class="st3"/>
			</g>
			<g id="shape117-188" v:mID="117" v:groupContext="groupContent">
				<v:textBlock v:margins="rect(4,4,4,4)" v:tabSpace="42.5197"/>
				<v:textRect cx="42.5197" cy="504.567" width="85.04" height="28.3465"/>
				<path d="M85.04 504.57 A42.5197 14.1732 -180 1 0 0 504.57 A42.5197 14.1732 -180 1 0 85.04 504.57 Z" class="st1"/>
				<text x="13.1" y="507.57" class="st2" v:langID="2057"><v:paragraph v:horizAlign="1"/><v:tabList/>Institue NAME</text>			</g>
		</g>
		<g id="group119-191" transform="translate(286.59,-243.195)" v:mID="119" v:groupContext="group" v:layerMember="0">
			<v:userDefs>
				<v:ud v:nameU="visVersion" v:prompt="" v:val="VT0(15):26"/>
				<v:ud v:nameU="ShowMulti" v:prompt="" v:val="VT0(0):26"/>
				<v:ud v:nameU="BeginAngle" v:prompt="" v:val="VT0(-0.78539816339745):32"/>
				<v:ud v:nameU="BeginAngle" v:prompt="" v:val="VT0(-0.28310402098118):32"/>
			</v:userDefs>
			<title>Dynamic connector.119</title>
			<desc>n</desc>
			<g id="shape119-192" v:mID="119" v:groupContext="groupContent" v:layerMember="0">
				<v:textBlock v:margins="rect(4,4,4,4)" v:tabSpace="42.5197"/>
				<v:textRect cx="53.1454" cy="548.962" width="40" height="17.6036"/>
				<path d="M0 518.74 L131.52 557" class="st5"/>
				<rect v:rectContext="textBkgnd" x="51.0438" y="544.162" width="4.20309" height="9.59985" class="st6"/>
				<text x="51.04" y="551.36" class="st7" v:langID="2057"><v:paragraph v:horizAlign="1"/><v:tabList/>n</text>			</g>
		</g>
		<g id="shape124-197" v:mID="124" v:groupContext="shape" transform="translate(56.6929,-370.76)">
			<title>Entity.124</title>
			<desc>Authority</desc>
			<v:userDefs>
				<v:ud v:nameU="msvShapeCategories" v:prompt="" v:val="VT4(Database;DbEntity)"/>
				<v:ud v:nameU="EntityName" v:prompt="" v:val="VT4()"/>
				<v:ud v:nameU="EntityNameSpace" v:prompt="" v:val="VT4()"/>
				<v:ud v:nameU="Weak" v:prompt="" v:val="VT0(0):26"/>
				<v:ud v:nameU="Composite" v:prompt="" v:val="VT0(0):26"/>
				<v:ud v:nameU="visVersion" v:prompt="" v:val="VT0(15):26"/>
				<v:ud v:nameU="EntityName" v:prompt="" v:val="VT4(Authority)"/>
				<v:ud v:nameU="EntityNameSpace" v:prompt="" v:val="VT4(Authority)"/>
			</v:userDefs>
			<v:textBlock v:margins="rect(4,4,4,4)" v:tabSpace="42.5197"/>
			<v:textRect cx="56.6929" cy="508.11" width="113.39" height="21.2598"/>
			<path d="M0 518.74 L113.39 518.74 L113.39 497.48 L0 497.48 L0 518.74 Z" class="st1"/>
			<text x="37.41" y="511.11" class="st2" v:langID="2057"><v:paragraph v:horizAlign="1"/><v:tabList/>Authority</text>		</g>
		<g id="group125-200" transform="translate(17.7165,-298.029)" v:mID="125" v:groupContext="group">
			<v:userDefs>
				<v:ud v:nameU="AttributeName" v:prompt="" v:val="VT4()"/>
				<v:ud v:nameU="PrimaryKey" v:prompt="" v:val="VT0(0):26"/>
				<v:ud v:nameU="Multivalue" v:prompt="" v:val="VT0(0):26"/>
				<v:ud v:nameU="Derived" v:prompt="" v:val="VT0(0):26"/>
				<v:ud v:nameU="Required" v:prompt="" v:val="VT0(0):5"/>
				<v:ud v:nameU="msvStructureType" v:prompt="" v:val="VT4(Callout)"/>
				<v:ud v:nameU="msvSDTargetIntersection" v:prompt=""/>
				<v:ud v:nameU="msvSDCalloutNoHighlight" v:prompt="" v:val="VT0(0):5"/>
				<v:ud v:nameU="msvShapeCategories" v:prompt="" v:val="VT4(Database;DbAttribute)"/>
				<v:ud v:nameU="Side" v:prompt="" v:val="VT0(4):26"/>
				<v:ud v:nameU="LeaderEnd" v:prompt="" v:val="VT7(PNT(7.5MM,-14.4MM)):40"/>
				<v:ud v:nameU="WHBoxIntersection" v:prompt="" v:val="VT7(PNT(12.115384615385MM,0MM)):40"/>
				<v:ud v:nameU="visVersion" v:prompt="" v:val="VT0(15):26"/>
				<v:ud v:nameU="AttributeName" v:prompt="" v:val="VT4(ID)"/>
				<v:ud v:nameU="msvSDTargetIntersection" v:prompt="" v:val="VT7(PNT(1.2153256786298,1.0101533360961)):40"/>
				<v:ud v:nameU="Side" v:prompt="" v:val="VT0(2):26"/>
				<v:ud v:nameU="LeaderEnd" v:prompt="" v:val="VT7(PNT(1.2153256786298,1.0101533360961)):40"/>
				<v:ud v:nameU="WHBoxIntersection" v:prompt="" v:val="VT7(PNT(30MM,0.39370078740158)):40"/>
			</v:userDefs>
			<title>Attribute.125</title>
			<desc>ID</desc>
			<g id="shape126-201" v:mID="126" v:groupContext="shape">
				<title>Sheet.126</title>
				<v:userDefs>
					<v:ud v:nameU="LeaderEnd" v:prompt="" v:val="VT7(PNT(7.5MM,-14.4MM)):40"/>
					<v:ud v:nameU="LeaderEnd" v:prompt="" v:val="VT7(PNT(1.2153256786298,1.0101533360961)):40"/>
				</v:userDefs>
				<path d="M42.52 504.57 L87.5 446.01" class="st3"/>
			</g>
			<g id="shape125-204" v:mID="125" v:groupContext="groupContent">
				<v:textBlock v:margins="rect(4,4,4,4)" v:tabSpace="42.5197"/>
				<v:textRect cx="42.5197" cy="504.567" width="85.04" height="28.3465"/>
				<path d="M85.04 504.57 A42.5197 14.1732 -180 1 0 0 504.57 A42.5197 14.1732 -180 1 0 85.04 504.57 Z" class="st1"/>
				<text x="38.18" y="507.57" class="st2" v:langID="2057"><v:paragraph v:horizAlign="1"/><v:tabList/>ID</text>			</g>
		</g>
		<g id="group127-207" transform="translate(116.929,-298.029)" v:mID="127" v:groupContext="group">
			<v:userDefs>
				<v:ud v:nameU="AttributeName" v:prompt="" v:val="VT4()"/>
				<v:ud v:nameU="PrimaryKey" v:prompt="" v:val="VT0(0):26"/>
				<v:ud v:nameU="Multivalue" v:prompt="" v:val="VT0(0):26"/>
				<v:ud v:nameU="Derived" v:prompt="" v:val="VT0(0):26"/>
				<v:ud v:nameU="Required" v:prompt="" v:val="VT0(0):5"/>
				<v:ud v:nameU="msvStructureType" v:prompt="" v:val="VT4(Callout)"/>
				<v:ud v:nameU="msvSDTargetIntersection" v:prompt=""/>
				<v:ud v:nameU="msvSDCalloutNoHighlight" v:prompt="" v:val="VT0(0):5"/>
				<v:ud v:nameU="msvShapeCategories" v:prompt="" v:val="VT4(Database;DbAttribute)"/>
				<v:ud v:nameU="Side" v:prompt="" v:val="VT0(4):26"/>
				<v:ud v:nameU="LeaderEnd" v:prompt="" v:val="VT7(PNT(7.5MM,-14.4MM)):40"/>
				<v:ud v:nameU="WHBoxIntersection" v:prompt="" v:val="VT7(PNT(12.115384615385MM,0MM)):40"/>
				<v:ud v:nameU="visVersion" v:prompt="" v:val="VT0(15):26"/>
				<v:ud v:nameU="AttributeName" v:prompt="" v:val="VT4(NAME)"/>
				<v:ud v:nameU="msvSDTargetIntersection" v:prompt="" v:val="VT7(PNT(0.049079949911923,1.0101533360961)):40"/>
				<v:ud v:nameU="Side" v:prompt="" v:val="VT0(2):26"/>
				<v:ud v:nameU="LeaderEnd" v:prompt="" v:val="VT7(PNT(0.049079949911923,1.0101533360961)):40"/>
				<v:ud v:nameU="WHBoxIntersection" v:prompt="" v:val="VT7(PNT(11.67115902965MM,0.39370078740158)):40"/>
			</v:userDefs>
			<title>Attribute.127</title>
			<desc>NAME</desc>
			<g id="shape128-208" v:mID="128" v:groupContext="shape">
				<title>Sheet.128</title>
				<v:userDefs>
					<v:ud v:nameU="LeaderEnd" v:prompt="" v:val="VT7(PNT(7.5MM,-14.4MM)):40"/>
					<v:ud v:nameU="LeaderEnd" v:prompt="" v:val="VT7(PNT(0.049079949911923,1.0101533360961)):40"/>
				</v:userDefs>
				<path d="M42.52 504.57 L3.53 446.01" class="st3"/>
			</g>
			<g id="shape127-211" v:mID="127" v:groupContext="groupContent">
				<v:textBlock v:margins="rect(4,4,4,4)" v:tabSpace="42.5197"/>
				<v:textRect cx="42.5197" cy="504.567" width="85.04" height="28.3465"/>
				<path d="M85.04 504.57 A42.5197 14.1732 -180 1 0 0 504.57 A42.5197 14.1732 -180 1 0 85.04 504.57 Z" class="st1"/>
				<text x="29.68" y="507.57" class="st2" v:langID="2057"><v:paragraph v:horizAlign="1"/><v:tabList/>NAME</text>			</g>
		</g>
		<g id="shape131-214" v:mID="131" v:groupContext="shape" transform="translate(216.142,-355.879)">
			<title>Relationship.131</title>
			<desc>Authorized By</desc>
			<v:userDefs>
				<v:ud v:nameU="msvShapeCategories" v:prompt="" v:val="VT4(Database;DbRelationshipNode)"/>
				<v:ud v:nameU="RelationshipName" v:prompt="" v:val="VT4()"/>
				<v:ud v:nameU="Identifying" v:prompt="" v:val="VT0(0):26"/>
				<v:ud v:nameU="visVersion" v:prompt="" v:val="VT0(15):26"/>
				<v:ud v:nameU="RelationshipName" v:prompt="" v:val="VT4(Authorized &#10;By)"/>
			</v:userDefs>
			<v:textBlock v:margins="rect(4,4,4,4)" v:tabSpace="42.5197"/>
			<v:textRect cx="35.4331" cy="493.228" width="70.87" height="51.0236"/>
			<path d="M35.43 518.74 L70.87 493.23 L35.43 467.72 L0 493.23 L35.43 518.74 Z" class="st1"/>
			<text x="12.99" y="490.23" class="st2" v:langID="2057"><v:paragraph v:horizAlign="1"/><v:tabList/>Authorized <v:newlineChar/><tspan
						x="30.45" dy="1.2em" class="st4">By</tspan></text>		</g>
		<g id="group132-218" transform="translate(170.079,-374.304)" v:mID="132" v:groupContext="group" v:layerMember="0">
			<v:userDefs>
				<v:ud v:nameU="visVersion" v:prompt="" v:val="VT0(15):26"/>
				<v:ud v:nameU="ShowMulti" v:prompt="" v:val="VT0(0):26"/>
				<v:ud v:nameU="BeginAngle" v:prompt="" v:val="VT0(-0.78539816339745):32"/>
				<v:ud v:nameU="BeginAngle" v:prompt="" v:val="VT0(0):32"/>
			</v:userDefs>
			<title>Dynamic connector.132</title>
			<desc>1</desc>
			<g id="shape132-219" v:mID="132" v:groupContext="groupContent" v:layerMember="0">
				<v:textBlock v:margins="rect(4,4,4,4)" v:tabSpace="42.5197"/>
				<v:textRect cx="28.5322" cy="525.827" width="40" height="17.6036"/>
				<path d="M0 511.65 L46.06 511.65" class="st5"/>
				<rect v:rectContext="textBkgnd" x="26.5047" y="521.027" width="4.05478" height="9.59985" class="st6"/>
				<text x="26.5" y="528.23" class="st7" v:langID="2057"><v:paragraph v:horizAlign="1"/><v:tabList/>1</text>			</g>
		</g>
		<g id="group137-224" transform="translate(268.553,-368.103)" v:mID="137" v:groupContext="group" v:layerMember="0">
			<v:userDefs>
				<v:ud v:nameU="visVersion" v:prompt="" v:val="VT0(15):26"/>
				<v:ud v:nameU="ShowMulti" v:prompt="" v:val="VT0(0):26"/>
				<v:ud v:nameU="BeginAngle" v:prompt="" v:val="VT0(-0.78539816339745):32"/>
				<v:ud v:nameU="BeginAngle" v:prompt="" v:val="VT0(-0.58504711841156):32"/>
			</v:userDefs>
			<title>Dynamic connector.137</title>
			<desc>n</desc>
			<g id="shape137-225" v:mID="137" v:groupContext="groupContent" v:layerMember="0">
				<v:textBlock v:margins="rect(4,4,4,4)" v:tabSpace="42.5197"/>
				<v:textRect cx="18.9676" cy="548.305" width="40" height="17.6036"/>
				<path d="M0 518.74 L43.26 547.39" class="st5"/>
				<rect v:rectContext="textBkgnd" x="16.866" y="543.505" width="4.20309" height="9.59985" class="st6"/>
				<text x="16.87" y="550.71" class="st7" v:langID="2057"><v:paragraph v:horizAlign="1"/><v:tabList/>n</text>			</g>
		</g>
	</g>
</svg>
