{
  "$schema": "http://json-schema.org/draft-04/schema#",
  "type": "object",
  "properties": {
    "username": {
      "type": "string"
    },
    "authority": {
      "type": "string"
    },
    "accout_type": {
      "type": "string"
    }
  },
  "required": [
    "username",
    "authority",
    "accout_type"
  ]
}